"RowId"	"File"	"Object"	"Area"	"Filled area"	"Perimeter"	"Roundness"	"Solidity"	"Eccentricity"	"Ly"	"Lx"	"Alpha"	"Sk width"	"Sk width std"	"Skeleton length"	"Branch points"	"End points"	"Maximum length"	"Length estimate"	"Distance(1)"	"X"	"Y"
cells.tif_DAPI.png_1	cells.tif_DAPI.png	1	725	725	99.789	0.956514	0.964096	0.679341	13.0375	17.7666	0.454085	14.8316	8.66685	23	0	2	35.1141	33.2736	95.4365	31.3945	22.1572
cells.tif_DAPI.png_2	cells.tif_DAPI.png	2	286	286	67.204	0.892057	0.937705	0.784778	7.67582	12.3848	-0.0386923	10	0	1	0	1	24.0416	23.9128	28.7175	55.0105	234.308
cells.tif_DAPI.png_3	cells.tif_DAPI.png	3	606	606	88.83	0.982385	0.958861	0.664951	12.1582	16.2785	0.0672739	17.3968	2.87279	18	0	2	31.6228	28.8192	34.8304	70.5132	161.073
cells.tif_DAPI.png_4	cells.tif_DAPI.png	4	458	458	90.7	0.836432	0.879079	0.592261	11.4425	14.2011	1.28633	9.03852	4.49266	15	0	2	30.2655	33.995	26.8774	70.583	210.179
cells.tif_DAPI.png_5	cells.tif_DAPI.png	5	689	689	93.238	0.997979	0.97454	0.714513	12.4131	17.7426	-0.421896	21.1145	1.40616	10	0	2	35.2278	29.744	26.8774	88.9927	190.597
cells.tif_DAPI.png_6	cells.tif_DAPI.png	6	894	894	120.547	0.87926	0.909461	0.821423	13.1574	23.0703	0.557748	18.0439	2.55478	23	0	2	43.4626	43.4247	34.8629	96.6801	233.295
cells.tif_DAPI.png_7	cells.tif_DAPI.png	7	360	360	66.211	1.01584	0.957447	0.323521	10.4652	11.06	-0.0887842	13.9182	3.36635	7	0	2	22.4722	20.7122	28.5711	105.842	167.522
cells.tif_DAPI.png_8	cells.tif_DAPI.png	8	856	856	101.682	1.01999	0.982778	0.604447	14.7461	18.5103	-0.285842	26.0023	1.00231	8	0	2	36.4005	31.6624	61.9227	112.675	72.1729
cells.tif_DAPI.png_9	cells.tif_DAPI.png	9	1204	1204	137.691	0.893331	0.948779	0.552305	17.9748	21.5618	-1.40169	23.157	4.77466	18	0	2	43.9659	48.9332	48.9276	118.732	276.972
cells.tif_DAPI.png_10	cells.tif_DAPI.png	10	258	258	56.767	1.00304	0.962687	0.343469	8.8117	9.38249	0.938805	6.99035	5.611	10	0	2	18.7883	18.0096	60.3446	153.484	212.93
cells.tif_DAPI.png_11	cells.tif_DAPI.png	11	723	723	110.796	0.8603	0.912879	0.485034	14.3898	16.455	-0.171003	12.1119	9.0867	21	0	2	37.6431	40.6311	32.99	169.375	143.853
cells.tif_DAPI.png_12	cells.tif_DAPI.png	12	806	806	121.58	0.827771	0.917995	0.919803	10.2543	26.1335	0.274333	14.6926	2.73625	32	0	2	50.2892	45.9225	22.0917	178.169	112.057
cells.tif_DAPI.png_13	cells.tif_DAPI.png	13	290	290	68.279	0.884131	0.923567	0.637609	8.51722	11.0562	0.692783	12.6491	0	1	0	1	23.0217	24.4818	22.0917	171.686	90.9379
cells.tif_DAPI.png_14	cells.tif_DAPI.png	14	356	356	65.74	1.01742	0.972678	0.620191	9.48343	12.0893	0.299056	15.1848	2.07994	7	0	2	24.0416	20.529	27.9837	200.798	128.52
cells.tif_DAPI.png_15	cells.tif_DAPI.png	15	1437	1437	148.483	0.905017	0.933723	0.59266	19.5354	24.254	-0.377342	18.8349	11.475	41	0	2	51.614	52.1686	59.929	251.467	96.5177
cells.tif_DAPI.png_16	cells.tif_DAPI.png	16	448	448	80.717	0.929563	0.937238	0.785584	9.65059	15.5968	1.3921	10.8686	4.82654	22	0	2	31.6228	27.6717	29.3351	265.788	312.926
cells.tif_DAPI.png_17	cells.tif_DAPI.png	17	297	297	70.867	0.862063	0.905488	0.848565	7.20167	13.6114	0.157887	7.47142	4.35738	21	0	2	26.9258	25.9457	32.617	285.391	40.2593
cells.tif_DAPI.png_18	cells.tif_DAPI.png	18	257	257	66.956	0.848754	0.89547	0.804704	7.06636	11.9027	1.53849	7.11829	3.36126	22	0	2	24.5153	24.8169	29.3351	279.86	287.187
cells.tif_DAPI.png_19	cells.tif_DAPI.png	19	439	439	73.82	1.00615	0.964835	0.514893	10.9653	12.7912	-0.590066	18.433	1.72224	4	0	2	25.2389	23.3402	35.921	308.829	308.426
cells.tif_DAPI.png_20	cells.tif_DAPI.png	20	677	677	92.469	0.997477	0.965763	0.539505	13.5604	16.1053	0.646277	20.1474	3.21619	9	0	2	32.8024	29.5148	69.826	312.27	139.012
cells.tif_DAPI.png_21	cells.tif_DAPI.png	21	612	612	89.641	0.978304	0.969889	0.712682	11.7243	16.7135	0.52052	19.7153	0.591252	8	0	2	33.2866	29.2096	32.617	317.884	43.0964
cells.tif_DAPI.png_22	cells.tif_DAPI.png	22	2556	2556	282.874	0.633567	0.747587	0.736177	27.1822	40.1635	-1.01339	16.1859	7.47065	69	0	2	77.2528	123.508	49.1187	350.003	80.2586
cells.tif_DAPI.png_23	cells.tif_DAPI.png	23	1826	1826	185.047	0.818603	0.86911	0.871025	17.7891	36.2126	0.167808	21.192	5.41392	47	0	2	67.4166	70.4612	49.7388	366.147	248.135
cells.tif_DAPI.png_24	cells.tif_DAPI.png	24	1742	1742	160.318	0.922883	0.930556	0.645868	21.1539	27.7083	-0.721161	26.9062	2.9684	17	0	2	54.7083	55.333	48.7801	356.645	298.773
cells.tif_DAPI.png_25	cells.tif_DAPI.png	25	610	610	86.415	1.01317	0.976	0.594423	12.5214	15.5709	0.396054	21.5418	1.12951	7	0	2	30.8869	27.1125	34.6543	365.215	17.4262
cells.tif_DAPI.png_26	cells.tif_DAPI.png	26	1003	1003	134.391	0.835382	0.888397	0.841284	13.6464	25.2434	-1.54548	15.9903	3.23188	18	0	2	47.8017	50.4181	34.6543	387.627	43.8574
cells.tif_DAPI.png_27	cells.tif_DAPI.png	27	737	737	96.009	1.00237	0.976159	0.693065	13.0296	18.0747	0.91563	21.7099	2.17669	13	0	2	35.609	30.4818	49.7388	395.589	208.046
