"File"	"Object"	"X"	"Y"
1_16.png	1	29	25
1_16.png	2	72	56
1_16.png	3	126	96
1_16.png	4	170	128
1_16.png	5	235	176
1_16.png	6	279	208
1_16.png	7	322	240
1_16.png	8	376	280
1_16.png	9	442	327
1_16.png	10	485	359
1_16.png	11	529	391
1_16.png	12	572	423
1_16.png	13	626	463
1_16.png	14	670	495
1_16.png	15	735	543
1_16.png	16	779	575
2_16.png	1	29	25
2_16.png	2	72	56
2_16.png	3	126	96
2_16.png	4	170	128
2_16.png	5	235	176
2_16.png	6	279	208
2_16.png	7	322	240
2_16.png	8	376	280
2_16.png	9	442	327
2_16.png	10	485	359
2_16.png	11	529	391
2_16.png	12	572	423
2_16.png	13	626	463
2_16.png	14	670	495
2_16.png	15	735	543
2_16.png	16	779	575
